{
	"id": "d3d3ca22-fa36-4dc9-abb2-6f93eff4c00b",
	"name": "Production",
	"values": [
		{
			"key": "baseUrl",
			"value": "http://production.eba-xzuee5dx.us-east-1.elasticbeanstalk.com",
			"enabled": true
		}
	],
	"_postman_variable_scope": "environment",
	"_postman_exported_at": "2020-07-24T07:23:17.583Z",
	"_postman_exported_using": "Postman/7.27.1"
}